<svg width="30" height="34" viewBox="0 0 30 34" fill="none" xmlns="http://www.w3.org/2000/svg">
<path d="M0.654044 29.0058C0.46645 29.0058 0.309277 28.9449 0.182524 28.8232C0.0608413 28.6962 0 28.54 0 28.3547C0 28.1695 0.0608413 28.016 0.182524 27.8942C0.309277 27.7672 0.46645 27.7037 0.654044 27.7037C0.841638 27.7037 0.996276 27.7672 1.11796 27.8942C1.24471 28.016 1.30809 28.1695 1.30809 28.3547C1.30809 28.54 1.24471 28.6962 1.11796 28.8232C0.996276 28.9449 0.841638 29.0058 0.654044 29.0058ZM1.1788 29.5298V33.9285H0.114077V29.5298H1.1788Z" fill="#641873"/>
<path d="M5.47055 30.6255V31.5624H2.24596V30.6255H5.47055Z" fill="#641873"/>
<path d="M7.20458 29.0058C7.01699 29.0058 6.85982 28.9449 6.73306 28.8232C6.61138 28.6962 6.55054 28.54 6.55054 28.3547C6.55054 28.1695 6.61138 28.016 6.73306 27.8942C6.85982 27.7672 7.01699 27.7037 7.20458 27.7037C7.39218 27.7037 7.54681 27.7672 7.6685 27.8942C7.79525 28.016 7.85863 28.1695 7.85863 28.3547C7.85863 28.54 7.79525 28.6962 7.6685 28.8232C7.54681 28.9449 7.39218 29.0058 7.20458 29.0058ZM7.72934 29.5298V33.9285H6.66462V29.5298H7.72934Z" fill="#641873"/>
<path d="M11.1161 29.4663C11.618 29.4663 12.0236 29.6331 12.3329 29.9665C12.6422 30.2947 12.7968 30.7552 12.7968 31.3481V33.9285H11.7321V31.4989C11.7321 31.1496 11.6484 30.8823 11.4811 30.697C11.3138 30.5064 11.0856 30.4112 10.7967 30.4112C10.5026 30.4112 10.2694 30.5064 10.097 30.697C9.92967 30.8823 9.84601 31.1496 9.84601 31.4989V33.9285H8.78129V29.5298H9.84601V30.0777C9.98797 29.8871 10.168 29.7389 10.386 29.6331C10.6091 29.5219 10.8524 29.4663 11.1161 29.4663Z" fill="#641873"/>
<path d="M15.5661 32.9043L16.6308 29.5298H17.764L16.2049 33.9285H14.9121L13.3606 29.5298H14.5014L15.5661 32.9043Z" fill="#641873"/>
<path d="M22.2787 31.6339C22.2787 31.7927 22.2685 31.9356 22.2482 32.0626H19.1682C19.1935 32.3802 19.3 32.629 19.4876 32.809C19.6752 32.989 19.9059 33.0789 20.1796 33.0789C20.5751 33.0789 20.8565 32.9016 21.0238 32.547H22.1722C22.0505 32.9704 21.8173 33.3198 21.4725 33.595C21.1278 33.865 20.7044 34 20.2025 34C19.7968 34 19.4318 33.9073 19.1073 33.7221C18.7879 33.5315 18.5369 33.2642 18.3544 32.9202C18.1769 32.5761 18.0882 32.1791 18.0882 31.7292C18.0882 31.274 18.1769 30.8743 18.3544 30.5303C18.5319 30.1862 18.7803 29.9215 19.0997 29.7363C19.4191 29.551 19.7867 29.4584 20.2025 29.4584C20.603 29.4584 20.9604 29.5484 21.2748 29.7283C21.5942 29.9083 21.8401 30.165 22.0125 30.4985C22.1899 30.8267 22.2787 31.2051 22.2787 31.6339ZM21.1759 31.3163C21.1708 31.0305 21.072 30.8029 20.8793 30.6335C20.6867 30.4588 20.4509 30.3715 20.172 30.3715C19.9084 30.3715 19.6853 30.4562 19.5028 30.6255C19.3253 30.7896 19.2163 31.0199 19.1758 31.3163H21.1759Z" fill="#641873"/>
<path d="M24.6681 34C24.3233 34 24.0141 33.9365 23.7403 33.8094C23.4665 33.6771 23.2485 33.4998 23.0862 33.2774C22.9291 33.0551 22.8429 32.809 22.8277 32.539H23.9C23.9203 32.7084 23.9989 32.8487 24.1358 32.9599C24.2777 33.071 24.4526 33.1266 24.6605 33.1266C24.8633 33.1266 25.0205 33.0842 25.132 32.9995C25.2486 32.9149 25.3069 32.8063 25.3069 32.674C25.3069 32.5311 25.236 32.4252 25.094 32.3564C24.9571 32.2823 24.7366 32.2029 24.4324 32.1182C24.118 32.0388 23.8594 31.9568 23.6566 31.8721C23.4589 31.7874 23.2865 31.6577 23.1395 31.483C22.9975 31.3084 22.9265 31.0728 22.9265 30.7764C22.9265 30.5329 22.9924 30.3106 23.1243 30.1094C23.2612 29.9083 23.4538 29.7495 23.7023 29.6331C23.9558 29.5166 24.2524 29.4584 24.5921 29.4584C25.094 29.4584 25.4945 29.5907 25.7937 29.8554C26.0928 30.1147 26.2576 30.4667 26.288 30.9114H25.2689C25.2537 30.7367 25.1827 30.5991 25.056 30.4985C24.9343 30.3926 24.7695 30.3397 24.5616 30.3397C24.369 30.3397 24.2194 30.3768 24.1129 30.4509C24.0115 30.525 23.9608 30.6282 23.9608 30.7605C23.9608 30.9087 24.0318 31.0225 24.1738 31.1019C24.3157 31.176 24.5363 31.2528 24.8354 31.3322C25.1396 31.4116 25.3906 31.4936 25.5883 31.5783C25.7861 31.663 25.9559 31.7953 26.0979 31.9753C26.2449 32.15 26.321 32.3829 26.326 32.674C26.326 32.9281 26.2576 33.1557 26.1207 33.3568C25.9889 33.558 25.7962 33.7168 25.5427 33.8332C25.2943 33.9444 25.0027 34 24.6681 34Z" fill="#641873"/>
<path d="M28.4397 30.4429V32.5708C28.4397 32.719 28.4726 32.8275 28.5385 32.8963C28.6095 32.9599 28.7261 32.9916 28.8884 32.9916H29.3827V33.9285H28.7135C27.8161 33.9285 27.3673 33.4733 27.3673 32.5629V30.4429H26.8654V29.5298H27.3673V28.4421H28.4397V29.5298H29.3827V30.4429H28.4397Z" fill="#641873"/>
<path fill-rule="evenodd" clip-rule="evenodd" d="M14.1103 0.0291586C14.1103 0.0451959 14.0619 0.0583173 14.0028 0.0583173C13.9437 0.0583173 13.8954 0.0714387 13.8954 0.0874759C13.8954 0.103513 13.847 0.116635 13.7879 0.116635C13.7288 0.116635 13.6804 0.129756 13.6804 0.145793C13.6804 0.16183 13.6442 0.174952 13.5999 0.174952C13.5555 0.174952 13.5193 0.188073 13.5193 0.20411C13.5193 0.220148 13.483 0.233269 13.4387 0.233269C13.3943 0.233269 13.3581 0.24639 13.3581 0.262428C13.3581 0.278465 13.3339 0.291586 13.3044 0.291586C13.2748 0.291586 13.2506 0.304708 13.2506 0.320745C13.2506 0.336782 13.2144 0.349904 13.17 0.349904C13.1257 0.349904 13.0894 0.363025 13.0894 0.379062C13.0894 0.3951 13.0653 0.408221 13.0357 0.408221C13.0062 0.408221 12.982 0.421342 12.982 0.43738C12.982 0.453417 12.9605 0.466538 12.9342 0.466538C12.9079 0.466538 12.869 0.492781 12.8477 0.524855C12.8264 0.55693 12.7874 0.583173 12.7611 0.583173C12.7349 0.583173 12.7134 0.596294 12.7134 0.612331C12.7134 0.628369 12.6892 0.64149 12.6596 0.64149C12.6301 0.64149 12.6059 0.654611 12.6059 0.670649C12.6059 0.686686 12.5817 0.699807 12.5522 0.699807C12.5226 0.699807 12.4985 0.712929 12.4985 0.728966C12.4985 0.745003 12.4769 0.758125 12.4507 0.758125C12.4244 0.758125 12.3854 0.784367 12.3641 0.816442C12.3428 0.848516 12.3039 0.874759 12.2776 0.874759C12.2513 0.874759 12.2298 0.88788 12.2298 0.903918C12.2298 0.919955 12.2056 0.933076 12.1761 0.933076C12.1465 0.933076 12.1224 0.946198 12.1224 0.962235C12.1224 0.978272 12.0982 0.991394 12.0686 0.991394C12.0391 0.991394 12.0149 1.00451 12.0149 1.02055C12.0149 1.03659 11.9934 1.04971 11.9671 1.04971C11.9408 1.04971 11.9019 1.07595 11.8806 1.10803C11.8593 1.1401 11.8204 1.16635 11.7941 1.16635C11.7678 1.16635 11.7463 1.17947 11.7463 1.1955C11.7463 1.21154 11.7221 1.22466 11.6925 1.22466C11.663 1.22466 11.6388 1.23778 11.6388 1.25382C11.6388 1.26986 11.6146 1.28298 11.5851 1.28298C11.5555 1.28298 11.5314 1.2961 11.5314 1.31214C11.5314 1.32818 11.5099 1.3413 11.4836 1.3413C11.4573 1.3413 11.4184 1.36754 11.3971 1.39961C11.3757 1.43169 11.3368 1.45793 11.3105 1.45793C11.2843 1.45793 11.2627 1.47105 11.2627 1.48709C11.2627 1.50313 11.2386 1.51625 11.209 1.51625C11.1795 1.51625 11.1553 1.52937 11.1553 1.54541C11.1553 1.56144 11.1311 1.57457 11.1016 1.57457C11.072 1.57457 11.0478 1.58769 11.0478 1.60372C11.0478 1.61976 11.0263 1.63288 11 1.63288C10.9737 1.63288 10.9348 1.65913 10.9135 1.6912C10.8922 1.72328 10.8533 1.74952 10.827 1.74952C10.8007 1.74952 10.7792 1.76264 10.7792 1.77868C10.7792 1.79471 10.755 1.80784 10.7255 1.80784C10.6959 1.80784 10.6717 1.82096 10.6717 1.83699C10.6717 1.85303 10.6476 1.86615 10.618 1.86615C10.5885 1.86615 10.5643 1.87927 10.5643 1.89531C10.5643 1.91135 10.5428 1.92447 10.5165 1.92447C10.4902 1.92447 10.4513 1.95071 10.43 1.98279C10.4087 2.01486 10.3697 2.0411 10.3434 2.0411C10.3172 2.0411 10.2956 2.05423 10.2956 2.07026C10.2956 2.0863 10.2715 2.09942 10.2419 2.09942C10.2124 2.09942 10.1882 2.11254 10.1882 2.12858C10.1882 2.14462 10.164 2.15774 10.1345 2.15774C10.1049 2.15774 10.0807 2.17086 10.0807 2.1869C10.0807 2.20293 10.0592 2.21606 10.033 2.21606C10.0067 2.21606 9.96773 2.2423 9.94642 2.27437C9.92512 2.30645 9.8862 2.33269 9.8599 2.33269C9.83362 2.33269 9.81211 2.34581 9.81211 2.36185C9.81211 2.37789 9.78793 2.39101 9.75838 2.39101C9.72883 2.39101 9.70465 2.40413 9.70465 2.42017C9.70465 2.4362 9.68566 2.44933 9.66245 2.44933C9.60816 2.44933 9.54347 2.51954 9.54347 2.57847C9.54347 2.60366 9.53138 2.62428 9.51661 2.62428C9.50183 2.62428 9.48975 2.66364 9.48975 2.71175C9.48975 2.75986 9.50183 2.79923 9.51661 2.79923C9.53431 2.79923 9.54347 3.69898 9.54347 5.44016C9.54347 7.69009 9.54917 8.08726 9.58186 8.12275C9.62586 8.17054 9.70465 8.17856 9.70465 8.13526C9.70465 8.11922 9.72883 8.1061 9.75838 8.1061C9.78793 8.1061 9.81211 8.09298 9.81211 8.07694C9.81211 8.0609 9.83628 8.04778 9.86583 8.04778C9.89538 8.04778 9.91956 8.03466 9.91956 8.01862C9.91956 8.00259 9.94374 7.98947 9.97329 7.98947C10.0028 7.98947 10.027 7.97634 10.027 7.96031C10.027 7.94427 10.0485 7.93115 10.0748 7.93115C10.1011 7.93115 10.14 7.90491 10.1613 7.87283C10.1826 7.84076 10.2216 7.81451 10.2479 7.81451C10.2741 7.81451 10.2956 7.80139 10.2956 7.78536C10.2956 7.76932 10.3198 7.7562 10.3494 7.7562C10.3789 7.7562 10.4031 7.74307 10.4031 7.72704C10.4031 7.711 10.4273 7.69788 10.4568 7.69788C10.4864 7.69788 10.5106 7.68476 10.5106 7.66872C10.5106 7.65268 10.5347 7.63956 10.5643 7.63956C10.5938 7.63956 10.618 7.62644 10.618 7.6104C10.618 7.59437 10.6422 7.58124 10.6717 7.58124C10.7013 7.58124 10.7255 7.56812 10.7255 7.55209C10.7255 7.53605 10.7496 7.52293 10.7792 7.52293C10.8087 7.52293 10.8329 7.50981 10.8329 7.49377C10.8329 7.47773 10.8571 7.46461 10.8866 7.46461C10.9162 7.46461 10.9404 7.45149 10.9404 7.43545C10.9404 7.41941 10.9645 7.40629 10.9941 7.40629C11.0236 7.40629 11.0478 7.39317 11.0478 7.37713C11.0478 7.3611 11.072 7.34798 11.1016 7.34798C11.1311 7.34798 11.1553 7.33485 11.1553 7.31882C11.1553 7.30278 11.1795 7.28966 11.209 7.28966C11.2386 7.28966 11.2627 7.27654 11.2627 7.2605C11.2627 7.24446 11.2843 7.23134 11.3105 7.23134C11.3368 7.23134 11.3757 7.2051 11.3971 7.17302C11.4184 7.14095 11.4573 7.11471 11.4836 7.11471C11.5099 7.11471 11.5314 7.10158 11.5314 7.08555C11.5314 7.06951 11.5555 7.05639 11.5851 7.05639C11.6146 7.05639 11.6388 7.04327 11.6388 7.02723C11.6388 7.01119 11.663 6.99807 11.6925 6.99807C11.7221 6.99807 11.7463 6.98495 11.7463 6.96891C11.7463 6.95288 11.7678 6.93975 11.7941 6.93975C11.8204 6.93975 11.8593 6.91351 11.8806 6.88144C11.9019 6.84936 11.9408 6.82312 11.9671 6.82312C11.9934 6.82312 12.0149 6.81 12.0149 6.79396C12.0149 6.77792 12.0391 6.7648 12.0686 6.7648C12.0982 6.7648 12.1224 6.75168 12.1224 6.73564C12.1224 6.71961 12.1465 6.70649 12.1761 6.70649C12.2056 6.70649 12.2298 6.69336 12.2298 6.67733C12.2298 6.66129 12.2513 6.64817 12.2776 6.64817C12.3039 6.64817 12.3428 6.62193 12.3641 6.58985C12.3854 6.55778 12.4244 6.53153 12.4507 6.53153C12.4769 6.53153 12.4985 6.51841 12.4985 6.50238C12.4985 6.48634 12.5226 6.47322 12.5522 6.47322C12.5817 6.47322 12.6059 6.4601 12.6059 6.44406C12.6059 6.42802 12.6301 6.4149 12.6596 6.4149C12.6892 6.4149 12.7134 6.40178 12.7134 6.38574C12.7134 6.3697 12.7349 6.35658 12.7611 6.35658C12.7874 6.35658 12.8264 6.33034 12.8477 6.29826C12.869 6.26619 12.9079 6.23995 12.9342 6.23995C12.9605 6.23995 12.982 6.22683 12.982 6.21079C12.982 6.19475 13.0062 6.18163 13.0357 6.18163C13.0653 6.18163 13.0894 6.16851 13.0894 6.15247C13.0894 6.13643 13.1136 6.12331 13.1432 6.12331C13.1727 6.12331 13.1969 6.11019 13.1969 6.09415C13.1969 6.07812 13.2184 6.065 13.2447 6.065C13.271 6.065 13.3099 6.03875 13.3312 6.00668C13.3525 5.9746 13.3914 5.94836 13.4177 5.94836C13.444 5.94836 13.4655 5.93524 13.4655 5.9192C13.4655 5.90317 13.4897 5.89004 13.5193 5.89004C13.5488 5.89004 13.573 5.87692 13.573 5.86089C13.573 5.84485 13.6093 5.83173 13.6536 5.83173C13.6979 5.83173 13.7342 5.81861 13.7342 5.80257C13.7342 5.78653 13.7583 5.77341 13.7879 5.77341C13.8174 5.77341 13.8416 5.76029 13.8416 5.74425C13.8416 5.72821 13.89 5.71509 13.9491 5.71509C14.0082 5.71509 14.0565 5.70197 14.0565 5.68593C14.0565 5.6699 14.1049 5.65677 14.164 5.65677C14.2231 5.65677 14.2714 5.64365 14.2714 5.62762C14.2714 5.6091 14.4774 5.59846 14.8356 5.59846C15.1937 5.59846 15.3997 5.6091 15.3997 5.62762C15.3997 5.64365 15.4481 5.65677 15.5072 5.65677C15.5663 5.65677 15.6146 5.6699 15.6146 5.68593C15.6146 5.70197 15.663 5.71509 15.7221 5.71509C15.7812 5.71509 15.8295 5.72821 15.8295 5.74425C15.8295 5.76029 15.8658 5.77341 15.9101 5.77341C15.9544 5.77341 15.9907 5.78653 15.9907 5.80257C15.9907 5.81861 16.027 5.83173 16.0713 5.83173C16.1156 5.83173 16.1519 5.84485 16.1519 5.86089C16.1519 5.87692 16.1761 5.89004 16.2056 5.89004C16.2352 5.89004 16.2593 5.90317 16.2593 5.9192C16.2593 5.93524 16.2835 5.94836 16.3131 5.94836C16.3426 5.94836 16.3668 5.96148 16.3668 5.97752C16.3668 5.99356 16.3883 6.00668 16.4146 6.00668C16.4409 6.00668 16.4798 6.03292 16.5011 6.065C16.5224 6.09707 16.5613 6.12331 16.5876 6.12331C16.6139 6.12331 16.6354 6.13643 16.6354 6.15247C16.6354 6.16851 16.6596 6.18163 16.6891 6.18163C16.7187 6.18163 16.7429 6.19475 16.7429 6.21079C16.7429 6.22683 16.7671 6.23995 16.7966 6.23995C16.8262 6.23995 16.8503 6.25307 16.8503 6.26911C16.8503 6.28514 16.8745 6.29826 16.9041 6.29826C16.9336 6.29826 16.9578 6.31139 16.9578 6.32742C16.9578 6.34346 16.9793 6.35658 17.0056 6.35658C17.0319 6.35658 17.0708 6.38283 17.0921 6.4149C17.1134 6.44697 17.1523 6.47322 17.1786 6.47322C17.2049 6.47322 17.2264 6.48634 17.2264 6.50238C17.2264 6.51841 17.2506 6.53153 17.2801 6.53153C17.3097 6.53153 17.3339 6.54466 17.3339 6.56069C17.3339 6.57673 17.358 6.58985 17.3876 6.58985C17.4171 6.58985 17.4413 6.60297 17.4413 6.61901C17.4413 6.63505 17.4628 6.64817 17.4891 6.64817C17.5154 6.64817 17.5543 6.67441 17.5756 6.70649C17.5969 6.73856 17.6359 6.7648 17.6622 6.7648C17.6884 6.7648 17.71 6.77792 17.71 6.79396C17.71 6.81 17.7341 6.82312 17.7637 6.82312C17.7932 6.82312 17.8174 6.83624 17.8174 6.85228C17.8174 6.86832 17.8416 6.88144 17.8711 6.88144C17.9007 6.88144 17.9249 6.89456 17.9249 6.9106C17.9249 6.92663 17.949 6.93975 17.9786 6.93975C18.0081 6.93975 18.0323 6.95288 18.0323 6.96891C18.0323 6.98495 18.0538 6.99807 18.0801 6.99807C18.1064 6.99807 18.1453 7.02431 18.1666 7.05639C18.1879 7.08846 18.2269 7.11471 18.2532 7.11471C18.2794 7.11471 18.301 7.12783 18.301 7.14387C18.301 7.1599 18.3251 7.17302 18.3547 7.17302C18.3842 7.17302 18.4084 7.18615 18.4084 7.20218C18.4084 7.21822 18.4326 7.23134 18.4621 7.23134C18.4917 7.23134 18.5159 7.24446 18.5159 7.2605C18.5159 7.27654 18.54 7.28966 18.5696 7.28966C18.5991 7.28966 18.6233 7.30278 18.6233 7.31882C18.6233 7.33485 18.6475 7.34798 18.677 7.34798C18.7066 7.34798 18.7308 7.3611 18.7308 7.37713C18.7308 7.39317 18.7549 7.40629 18.7845 7.40629C18.814 7.40629 18.8382 7.41941 18.8382 7.43545C18.8382 7.45149 18.8624 7.46461 18.892 7.46461C18.9215 7.46461 18.9457 7.47773 18.9457 7.49377C18.9457 7.50981 18.9699 7.52293 18.9994 7.52293C19.029 7.52293 19.0531 7.53605 19.0531 7.55209C19.0531 7.56812 19.0773 7.58124 19.1069 7.58124C19.1364 7.58124 19.1606 7.59437 19.1606 7.6104C19.1606 7.62644 19.1848 7.63956 19.2143 7.63956C19.2439 7.63956 19.268 7.65268 19.268 7.66872C19.268 7.68476 19.2896 7.69788 19.3158 7.69788C19.3421 7.69788 19.3811 7.72412 19.4024 7.7562C19.4237 7.78827 19.4626 7.81451 19.4889 7.81451C19.5152 7.81451 19.5367 7.82764 19.5367 7.84367C19.5367 7.85971 19.5609 7.87283 19.5904 7.87283C19.62 7.87283 19.6441 7.88595 19.6441 7.90199C19.6441 7.91803 19.6683 7.93115 19.6979 7.93115C19.7274 7.93115 19.7516 7.94427 19.7516 7.96031C19.7516 7.97634 19.7758 7.98947 19.8053 7.98947C19.8349 7.98947 19.859 8.00259 19.859 8.01862C19.859 8.03466 19.8832 8.04778 19.9128 8.04778C19.9423 8.04778 19.9665 8.0609 19.9665 8.07694C19.9665 8.09298 20.0148 8.1061 20.0739 8.1061H20.1814V5.31938C20.1814 2.38136 20.1841 2.44933 20.0684 2.44933C20.0484 2.44933 20.0147 2.42308 19.9934 2.39101C19.972 2.35893 19.9331 2.33269 19.9068 2.33269C19.8806 2.33269 19.859 2.31957 19.859 2.30353C19.859 2.28749 19.8349 2.27437 19.8053 2.27437C19.7758 2.27437 19.7516 2.26125 19.7516 2.24521C19.7516 2.22918 19.7274 2.21606 19.6979 2.21606C19.6683 2.21606 19.6441 2.20293 19.6441 2.1869C19.6441 2.17086 19.62 2.15774 19.5904 2.15774C19.5609 2.15774 19.5367 2.14462 19.5367 2.12858C19.5367 2.11254 19.5125 2.09942 19.4829 2.09942C19.4534 2.09942 19.4292 2.0863 19.4292 2.07026C19.4292 2.05423 19.405 2.0411 19.3755 2.0411C19.3459 2.0411 19.3218 2.02798 19.3218 2.01195C19.3218 1.99591 19.3002 1.98279 19.274 1.98279C19.2477 1.98279 19.2088 1.95654 19.1874 1.92447C19.1661 1.8924 19.1272 1.86615 19.1009 1.86615C19.0746 1.86615 19.0531 1.85303 19.0531 1.83699C19.0531 1.82096 19.029 1.80784 18.9994 1.80784C18.9699 1.80784 18.9457 1.79471 18.9457 1.77868C18.9457 1.76264 18.9215 1.74952 18.892 1.74952C18.8624 1.74952 18.8382 1.7364 18.8382 1.72036C18.8382 1.70432 18.814 1.6912 18.7845 1.6912C18.7549 1.6912 18.7308 1.67808 18.7308 1.66204C18.7308 1.646 18.7093 1.63288 18.683 1.63288C18.6567 1.63288 18.6178 1.60664 18.5965 1.57457C18.5752 1.54249 18.5362 1.51625 18.5099 1.51625C18.4837 1.51625 18.4621 1.50313 18.4621 1.48709C18.4621 1.47105 18.438 1.45793 18.4084 1.45793C18.3789 1.45793 18.3547 1.44481 18.3547 1.42877C18.3547 1.41274 18.3305 1.39961 18.301 1.39961C18.2714 1.39961 18.2472 1.38649 18.2472 1.37046C18.2472 1.35442 18.2257 1.3413 18.1994 1.3413C18.1731 1.3413 18.1342 1.31505 18.1129 1.28298C18.0916 1.25091 18.0527 1.22466 18.0264 1.22466C18.0001 1.22466 17.9786 1.21154 17.9786 1.1955C17.9786 1.17947 17.9544 1.16635 17.9249 1.16635C17.8953 1.16635 17.8711 1.15322 17.8711 1.13719C17.8711 1.12115 17.847 1.10803 17.8174 1.10803C17.7879 1.10803 17.7637 1.09491 17.7637 1.07887C17.7637 1.06283 17.7395 1.04971 17.71 1.04971C17.6804 1.04971 17.6562 1.03659 17.6562 1.02055C17.6562 1.00451 17.6347 0.991394 17.6084 0.991394C17.5821 0.991394 17.5432 0.965151 17.5219 0.933076C17.5006 0.901002 17.4617 0.874759 17.4354 0.874759C17.4091 0.874759 17.3876 0.861638 17.3876 0.8456C17.3876 0.829563 17.3634 0.816442 17.3339 0.816442C17.3043 0.816442 17.2801 0.80332 17.2801 0.787283C17.2801 0.771246 17.256 0.758125 17.2264 0.758125C17.1969 0.758125 17.1727 0.745003 17.1727 0.728966C17.1727 0.712929 17.1512 0.699807 17.1249 0.699807C17.0986 0.699807 17.0597 0.673564 17.0384 0.64149C17.0171 0.609415 16.9781 0.583173 16.9518 0.583173C16.9256 0.583173 16.9041 0.570051 16.9041 0.554014C16.9041 0.537977 16.8799 0.524855 16.8503 0.524855C16.8208 0.524855 16.7966 0.511734 16.7966 0.495697C16.7966 0.47966 16.7724 0.466538 16.7429 0.466538C16.7133 0.466538 16.6891 0.453417 16.6891 0.43738C16.6891 0.421342 16.665 0.408221 16.6354 0.408221C16.6059 0.408221 16.5817 0.3951 16.5817 0.379062C16.5817 0.363025 16.5454 0.349904 16.5011 0.349904C16.4568 0.349904 16.4205 0.336782 16.4205 0.320745C16.4205 0.304708 16.3842 0.291586 16.3399 0.291586C16.2956 0.291586 16.2593 0.278465 16.2593 0.262428C16.2593 0.24639 16.2231 0.233269 16.1787 0.233269C16.1344 0.233269 16.0982 0.220148 16.0982 0.20411C16.0982 0.188073 16.0619 0.174952 16.0176 0.174952C15.9732 0.174952 15.937 0.16183 15.937 0.145793C15.937 0.129756 15.8886 0.116635 15.8295 0.116635C15.7704 0.116635 15.7221 0.103513 15.7221 0.0874759C15.7221 0.0714387 15.6616 0.0583173 15.5877 0.0583173C15.5139 0.0583173 15.4534 0.0451959 15.4534 0.0291586C15.4534 0.0104971 15.2117 0 14.7818 0C14.352 0 14.1103 0.0104971 14.1103 0.0291586Z" fill="#641873"/>
<path fill-rule="evenodd" clip-rule="evenodd" d="M21.0813 6.13598C21.0556 6.1677 21.0477 6.46427 21.0477 7.40423V8.63111L21.1409 8.73217C21.1921 8.78778 21.2466 8.83327 21.2621 8.83327C21.3028 8.83327 21.7462 9.32103 21.7462 9.36585C21.7462 9.38658 21.7703 9.42248 21.7999 9.4456C21.8294 9.46872 21.8536 9.50808 21.8536 9.53307C21.8536 9.55806 21.8778 9.59743 21.9073 9.62055C21.9369 9.64367 21.9611 9.68592 21.9611 9.71447C21.9611 9.74299 21.9732 9.76634 21.9879 9.76634C22.0027 9.76634 22.0148 9.79259 22.0148 9.82466C22.0148 9.85673 22.0269 9.88298 22.0417 9.88298C22.0564 9.88298 22.0685 9.92234 22.0685 9.97045C22.0685 10.0186 22.0806 10.0579 22.0954 10.0579C22.1102 10.0579 22.1223 10.0842 22.1223 10.1162C22.1223 10.1483 22.1343 10.1746 22.1491 10.1746C22.1639 10.1746 22.176 10.227 22.176 10.2912C22.176 10.3553 22.1881 10.4078 22.2028 10.4078C22.2176 10.4078 22.2297 10.4603 22.2297 10.5245C22.2297 10.5886 22.2418 10.6411 22.2566 10.6411C22.2743 10.6411 22.2834 11.7005 22.2834 13.7611C22.2834 15.8216 22.2743 16.8811 22.2566 16.8811C22.2418 16.8811 22.2297 16.9335 22.2297 16.9977C22.2297 17.0618 22.2176 17.1143 22.2028 17.1143C22.1881 17.1143 22.176 17.1537 22.176 17.2018C22.176 17.2499 22.1639 17.2893 22.1491 17.2893C22.1343 17.2893 22.1223 17.3155 22.1223 17.3476C22.1223 17.3797 22.1102 17.4059 22.0954 17.4059C22.0806 17.4059 22.0685 17.4321 22.0685 17.4642C22.0685 17.4963 22.0564 17.5225 22.0417 17.5225C22.0269 17.5225 22.0148 17.5459 22.0148 17.5744C22.0148 17.603 21.9906 17.6452 21.9611 17.6683C21.9315 17.6915 21.9073 17.7308 21.9073 17.7558C21.9073 17.7808 21.8832 17.8202 21.8536 17.8433C21.8241 17.8664 21.7999 17.9022 21.7999 17.9229C21.7999 17.9688 21.2485 18.5723 21.2066 18.5723C21.1901 18.5723 21.1428 18.6116 21.1014 18.6597C21.06 18.7078 21.0068 18.7472 20.9832 18.7472C20.9596 18.7472 20.9403 18.7603 20.9403 18.7764C20.9403 18.7924 20.9161 18.8055 20.8865 18.8055C20.857 18.8055 20.8328 18.8186 20.8328 18.8347C20.8328 18.8507 20.8086 18.8638 20.7791 18.8638C20.7495 18.8638 20.7254 18.877 20.7254 18.893C20.7254 18.909 20.7012 18.9222 20.6716 18.9222C20.6421 18.9222 20.6179 18.9353 20.6179 18.9513C20.6179 18.9674 20.5937 18.9805 20.5642 18.9805C20.5346 18.9805 20.5104 18.9936 20.5104 19.0096C20.5104 19.0257 20.4889 19.0388 20.4627 19.0388C20.4364 19.0388 20.3974 19.065 20.3761 19.0971C20.3534 19.1313 20.3066 19.1554 20.2627 19.1554H20.1881V15.0441C20.1881 12.3226 20.179 10.9327 20.1612 10.9327C20.1464 10.9327 20.1344 10.8671 20.1344 10.7869C20.1344 10.7067 20.1223 10.6411 20.1075 10.6411C20.0927 10.6411 20.0806 10.6017 20.0806 10.5536C20.0806 10.5055 20.0685 10.4662 20.0538 10.4662C20.039 10.4662 20.0269 10.4268 20.0269 10.3787C20.0269 10.3306 20.0148 10.2912 20 10.2912C19.9853 10.2912 19.9732 10.265 19.9732 10.2329C19.9732 10.2008 19.9611 10.1746 19.9463 10.1746C19.9315 10.1746 19.9195 10.1512 19.9195 10.1227C19.9195 10.0941 19.8953 10.0519 19.8657 10.0288C19.8362 10.0056 19.812 9.96975 19.812 9.94902C19.812 9.89983 19.3667 9.41644 19.3213 9.41644C19.3022 9.41644 19.2692 9.3902 19.2479 9.35812C19.2266 9.32605 19.1876 9.2998 19.1613 9.2998C19.1351 9.2998 19.1136 9.28668 19.1136 9.27065C19.1136 9.25461 19.0894 9.24149 19.0598 9.24149C19.0303 9.24149 19.0061 9.22837 19.0061 9.21233C19.0061 9.19629 18.9819 9.18317 18.9524 9.18317C18.9228 9.18317 18.8986 9.17005 18.8986 9.15401C18.8986 9.13797 18.8745 9.12485 18.8449 9.12485C18.8154 9.12485 18.7912 9.11173 18.7912 9.09569C18.7912 9.07966 18.767 9.06654 18.7375 9.06654C18.7079 9.06654 18.6837 9.05341 18.6837 9.03738C18.6837 9.02134 18.6596 9.00822 18.63 9.00822C18.6005 9.00822 18.5763 8.9951 18.5763 8.97906C18.5763 8.96302 18.5521 8.9499 18.5226 8.9499C18.493 8.9499 18.4688 8.93678 18.4688 8.92074C18.4688 8.9047 18.4447 8.89158 18.4151 8.89158C18.3856 8.89158 18.3614 8.87846 18.3614 8.86242C18.3614 8.84639 18.3372 8.83327 18.3076 8.83327C18.2781 8.83327 18.2539 8.82014 18.2539 8.80411C18.2539 8.78807 18.2297 8.77495 18.2002 8.77495C18.1706 8.77495 18.1465 8.76183 18.1465 8.74579C18.1465 8.72975 18.1223 8.71663 18.0927 8.71663C18.0632 8.71663 18.039 8.70351 18.039 8.68747C18.039 8.67144 18.0148 8.65831 17.9853 8.65831C17.9557 8.65831 17.9316 8.64519 17.9316 8.62916C17.9316 8.61312 17.9074 8.6 17.8778 8.6C17.8483 8.6 17.8241 8.58688 17.8241 8.57084C17.8241 8.5548 17.7999 8.54168 17.7704 8.54168C17.7408 8.54168 17.7167 8.52856 17.7167 8.51252C17.7167 8.49648 17.6925 8.48336 17.6629 8.48336C17.6334 8.48336 17.6092 8.47024 17.6092 8.4542C17.6092 8.43817 17.5877 8.42505 17.5614 8.42505C17.5351 8.42505 17.4962 8.3988 17.4749 8.36673C17.4536 8.33465 17.4147 8.30841 17.3884 8.30841C17.3621 8.30841 17.3406 8.29529 17.3406 8.27925C17.3406 8.26321 17.3164 8.25009 17.2868 8.25009C17.2573 8.25009 17.2331 8.23697 17.2331 8.22093C17.2331 8.2049 17.2089 8.19178 17.1794 8.19178C17.1498 8.19178 17.1257 8.17865 17.1257 8.16262C17.1257 8.14658 17.1015 8.13346 17.0719 8.13346C17.0424 8.13346 17.0182 8.12034 17.0182 8.1043C17.0182 8.08826 16.9967 8.07514 16.9704 8.07514C16.9441 8.07514 16.9052 8.0489 16.8839 8.01682C16.8626 7.98475 16.8237 7.95851 16.7974 7.95851C16.7711 7.95851 16.7496 7.94539 16.7496 7.92935C16.7496 7.91331 16.7254 7.90019 16.6958 7.90019C16.6663 7.90019 16.6421 7.88707 16.6421 7.87103C16.6421 7.85499 16.6179 7.84187 16.5884 7.84187C16.5588 7.84187 16.5347 7.82875 16.5347 7.81271C16.5347 7.79668 16.5131 7.78356 16.4869 7.78356C16.4606 7.78356 16.4216 7.75731 16.4003 7.72524C16.379 7.69316 16.3401 7.66692 16.3138 7.66692C16.2875 7.66692 16.266 7.6538 16.266 7.63776C16.266 7.62172 16.2418 7.6086 16.2123 7.6086C16.1827 7.6086 16.1586 7.59548 16.1586 7.57944C16.1586 7.56341 16.1344 7.55029 16.1048 7.55029C16.0753 7.55029 16.0511 7.53716 16.0511 7.52113C16.0511 7.50509 16.0269 7.49197 15.9974 7.49197C15.9678 7.49197 15.9437 7.47885 15.9437 7.46281C15.9437 7.44677 15.9195 7.43365 15.8899 7.43365C15.8604 7.43365 15.8362 7.42053 15.8362 7.40449C15.8362 7.38846 15.812 7.37533 15.7825 7.37533C15.7529 7.37533 15.7288 7.36221 15.7288 7.34618C15.7288 7.33014 15.6925 7.31702 15.6482 7.31702C15.6038 7.31702 15.5676 7.3039 15.5676 7.28786C15.5676 7.27182 15.5313 7.2587 15.487 7.2587C15.4427 7.2587 15.4064 7.24558 15.4064 7.22954C15.4064 7.2135 15.346 7.20038 15.2721 7.20038C15.1982 7.20038 15.1378 7.18726 15.1378 7.17122C15.1378 7.15329 15.0034 7.14207 14.7885 7.14207C14.5736 7.14207 14.4393 7.15329 14.4393 7.17122C14.4393 7.18726 14.3789 7.20038 14.305 7.20038C14.2311 7.20038 14.1707 7.2135 14.1707 7.22954C14.1707 7.24558 14.1344 7.2587 14.0901 7.2587C14.0458 7.2587 14.0095 7.27182 14.0095 7.28786C14.0095 7.3039 13.9853 7.31702 13.9558 7.31702C13.9262 7.31702 13.902 7.33014 13.902 7.34618C13.902 7.36221 13.8779 7.37533 13.8483 7.37533C13.8188 7.37533 13.7946 7.38846 13.7946 7.40449C13.7946 7.42053 13.7704 7.43365 13.7409 7.43365C13.7113 7.43365 13.6871 7.44677 13.6871 7.46281C13.6871 7.47885 13.663 7.49197 13.6334 7.49197C13.6039 7.49197 13.5797 7.50509 13.5797 7.52113C13.5797 7.53716 13.5582 7.55029 13.5319 7.55029C13.5056 7.55029 13.4667 7.57653 13.4454 7.6086C13.4241 7.64068 13.3851 7.66692 13.3588 7.66692C13.3326 7.66692 13.311 7.68004 13.311 7.69608C13.311 7.71212 13.2869 7.72524 13.2573 7.72524C13.2278 7.72524 13.2036 7.73836 13.2036 7.7544C13.2036 7.77043 13.1794 7.78356 13.1499 7.78356C13.1203 7.78356 13.0961 7.79668 13.0961 7.81271C13.0961 7.82875 13.0746 7.84187 13.0484 7.84187C13.0221 7.84187 12.9831 7.86812 12.9618 7.90019C12.9405 7.93226 12.9016 7.95851 12.8753 7.95851C12.849 7.95851 12.8275 7.97163 12.8275 7.98767C12.8275 8.0037 12.8033 8.01682 12.7738 8.01682C12.7442 8.01682 12.7201 8.02995 12.7201 8.04598C12.7201 8.06202 12.6959 8.07514 12.6663 8.07514C12.6368 8.07514 12.6126 8.08826 12.6126 8.1043C12.6126 8.12034 12.5911 8.13346 12.5648 8.13346C12.5385 8.13346 12.4996 8.1597 12.4783 8.19178C12.457 8.22385 12.4181 8.25009 12.3918 8.25009C12.3655 8.25009 12.344 8.26321 12.344 8.27925C12.344 8.29529 12.3198 8.30841 12.2902 8.30841C12.2607 8.30841 12.2365 8.32153 12.2365 8.33757C12.2365 8.35361 12.2123 8.36673 12.1828 8.36673C12.1532 8.36673 12.1291 8.37985 12.1291 8.39589C12.1291 8.41192 12.1049 8.42505 12.0753 8.42505C12.0458 8.42505 12.0216 8.43817 12.0216 8.4542C12.0216 8.47024 11.9974 8.48336 11.9679 8.48336C11.9383 8.48336 11.9141 8.49648 11.9141 8.51252C11.9141 8.52856 11.89 8.54168 11.8604 8.54168C11.8309 8.54168 11.8067 8.5548 11.8067 8.57084C11.8067 8.58688 11.7825 8.6 11.753 8.6C11.7234 8.6 11.6992 8.61312 11.6992 8.62916C11.6992 8.64519 11.6777 8.65831 11.6515 8.65831C11.6252 8.65831 11.5862 8.68456 11.5649 8.71663C11.5436 8.74871 11.5047 8.77495 11.4784 8.77495C11.4521 8.77495 11.4306 8.78807 11.4306 8.80411C11.4306 8.82014 11.4064 8.83327 11.3769 8.83327C11.3473 8.83327 11.3232 8.84639 11.3232 8.86242C11.3232 8.87846 11.299 8.89158 11.2694 8.89158C11.2399 8.89158 11.2157 8.9047 11.2157 8.92074C11.2157 8.93678 11.1915 8.9499 11.162 8.9499C11.1324 8.9499 11.1082 8.96302 11.1082 8.97906C11.1082 8.9951 11.0841 9.00822 11.0545 9.00822C11.025 9.00822 11.0008 9.02134 11.0008 9.03738C11.0008 9.05341 10.9766 9.06654 10.9471 9.06654C10.9175 9.06654 10.8933 9.07966 10.8933 9.09569C10.8933 9.11173 10.8692 9.12485 10.8396 9.12485C10.8101 9.12485 10.7859 9.13797 10.7859 9.15401C10.7859 9.17005 10.7617 9.18317 10.7322 9.18317C10.7026 9.18317 10.6784 9.19629 10.6784 9.21233C10.6784 9.22837 10.6543 9.24149 10.6247 9.24149C10.5952 9.24149 10.571 9.25461 10.571 9.27065C10.571 9.28668 10.5495 9.2998 10.5232 9.2998C10.4969 9.2998 10.458 9.32605 10.4367 9.35812C10.4154 9.3902 10.3823 9.41644 10.3632 9.41644C10.318 9.41644 9.8188 9.95824 9.8188 10.0074C9.8188 10.0281 9.79462 10.064 9.76507 10.0871C9.73552 10.1102 9.71135 10.1525 9.71135 10.181C9.71135 10.2095 9.69926 10.2329 9.68448 10.2329C9.66971 10.2329 9.65762 10.2591 9.65762 10.2912C9.65762 10.3233 9.64553 10.3495 9.63076 10.3495C9.61598 10.3495 9.60389 10.3889 9.60389 10.437C9.60389 10.4851 9.5918 10.5245 9.57703 10.5245C9.56226 10.5245 9.55017 10.577 9.55017 10.6411C9.55017 10.7053 9.53808 10.7577 9.5233 10.7577C9.50579 10.7577 9.49644 11.2048 9.49644 12.0407C9.49644 12.8766 9.50579 13.3237 9.5233 13.3237C9.54095 13.3237 9.55017 14.0138 9.55017 15.3356C9.55017 16.6575 9.55938 17.3476 9.57703 17.3476C9.59438 17.3476 9.60389 17.678 9.60389 18.2807V19.2137H9.5233C9.47898 19.2137 9.44271 19.2006 9.44271 19.1846C9.44271 19.1685 9.41854 19.1554 9.38899 19.1554C9.35944 19.1554 9.33526 19.1423 9.33526 19.1263C9.33526 19.1102 9.31108 19.0971 9.28153 19.0971C9.25198 19.0971 9.22781 19.084 9.22781 19.0679C9.22781 19.0519 9.20363 19.0388 9.17408 19.0388C9.14453 19.0388 9.12035 19.0257 9.12035 19.0096C9.12035 18.9936 9.09617 18.9805 9.06662 18.9805C9.03708 18.9805 9.0129 18.9674 9.0129 18.9513C9.0129 18.9353 8.98872 18.9222 8.95917 18.9222C8.92962 18.9222 8.90544 18.909 8.90544 18.893C8.90544 18.877 8.88127 18.8638 8.85172 18.8638C8.82217 18.8638 8.79799 18.8507 8.79799 18.8347C8.79799 18.8186 8.77381 18.8055 8.74426 18.8055C8.71471 18.8055 8.69054 18.7924 8.69054 18.7764C8.69054 18.7603 8.67122 18.7472 8.64758 18.7472C8.62397 18.7472 8.57075 18.7078 8.52936 18.6597C8.48796 18.6116 8.44063 18.5723 8.42419 18.5723C8.38515 18.5723 7.93836 18.0873 7.93836 18.0449C7.93836 18.0271 7.90209 17.9757 7.85777 17.9308C7.81345 17.8858 7.77718 17.8281 7.77718 17.8024C7.77718 17.7768 7.76509 17.7558 7.75032 17.7558C7.73554 17.7558 7.72345 17.7296 7.72345 17.6975C7.72345 17.6654 7.71136 17.6392 7.69659 17.6392C7.68181 17.6392 7.66973 17.6129 7.66973 17.5809C7.66973 17.5488 7.65764 17.5225 7.64286 17.5225C7.62809 17.5225 7.616 17.4963 7.616 17.4642C7.616 17.4321 7.60391 17.4059 7.58914 17.4059C7.57436 17.4059 7.56227 17.3665 7.56227 17.3184C7.56227 17.2703 7.55018 17.231 7.53541 17.231C7.52063 17.231 7.50855 17.1916 7.50855 17.1435C7.50855 17.0954 7.49646 17.056 7.48168 17.056C7.46691 17.056 7.45482 17.0035 7.45482 16.9394C7.45482 16.8752 7.44273 16.8227 7.42796 16.8227C7.41025 16.8227 7.40109 15.9577 7.40109 14.2859C7.40109 12.6142 7.39193 11.7491 7.37423 11.7491C7.35744 11.7491 7.34736 11.5742 7.34736 11.2826C7.34736 10.991 7.35744 10.8161 7.37423 10.8161C7.38916 10.8161 7.40109 10.7383 7.40109 10.6411C7.40109 10.5439 7.41302 10.4662 7.42796 10.4662C7.44273 10.4662 7.45482 10.4137 7.45482 10.3495C7.45482 10.2854 7.46691 10.2329 7.48168 10.2329C7.49646 10.2329 7.50855 10.2066 7.50855 10.1746C7.50855 10.1425 7.52063 10.1162 7.53541 10.1162C7.55018 10.1162 7.56227 10.0769 7.56227 10.0288C7.56227 9.98066 7.57436 9.94129 7.58914 9.94129C7.60391 9.94129 7.616 9.91794 7.616 9.88942C7.616 9.86088 7.64018 9.81862 7.66973 9.7955C7.69928 9.77238 7.72345 9.73302 7.72345 9.70803C7.72345 9.68304 7.74763 9.64367 7.77718 9.62055C7.80673 9.59743 7.83091 9.56042 7.83091 9.53832C7.83091 9.51625 7.86717 9.46137 7.9115 9.41644C7.95582 9.37151 7.99209 9.31995 7.99209 9.3019C7.99209 9.25954 8.22317 9.00822 8.26212 9.00822C8.27845 9.00822 8.33825 8.95573 8.39504 8.89158C8.45183 8.82743 8.51735 8.77495 8.54069 8.77495C8.56517 8.77495 8.58308 8.75031 8.58308 8.71663C8.58308 8.68456 8.59517 8.65831 8.60995 8.65831C8.62623 8.65831 8.63681 8.53197 8.63681 8.33757C8.63681 8.14317 8.62623 8.01682 8.60995 8.01682C8.59259 8.01682 8.58308 7.68637 8.58308 7.08375V6.15067H8.47563C8.41653 6.15067 8.36818 6.16379 8.36818 6.17983C8.36818 6.19587 8.344 6.20899 8.31445 6.20899C8.2849 6.20899 8.26072 6.22211 8.26072 6.23815C8.26072 6.25418 8.23654 6.26731 8.207 6.26731C8.17745 6.26731 8.15327 6.28043 8.15327 6.29646C8.15327 6.3125 8.13175 6.32562 8.10548 6.32562C8.07918 6.32562 8.04025 6.35187 8.01895 6.38394C7.99765 6.41602 7.95872 6.44226 7.93242 6.44226C7.90615 6.44226 7.88463 6.45538 7.88463 6.47142C7.88463 6.48745 7.86046 6.50058 7.83091 6.50058C7.80136 6.50058 7.77718 6.5137 7.77718 6.52973C7.77718 6.54577 7.753 6.55889 7.72345 6.55889C7.6939 6.55889 7.66973 6.57201 7.66973 6.58805C7.66973 6.60409 7.64555 6.61721 7.616 6.61721C7.58645 6.61721 7.56227 6.63033 7.56227 6.64637C7.56227 6.66241 7.5381 6.67553 7.50855 6.67553C7.479 6.67553 7.45482 6.68865 7.45482 6.70469C7.45482 6.72072 7.43064 6.73384 7.40109 6.73384C7.37154 6.73384 7.34736 6.74697 7.34736 6.763C7.34736 6.77904 7.32319 6.79216 7.29364 6.79216C7.26409 6.79216 7.23991 6.80528 7.23991 6.82132C7.23991 6.83736 7.21573 6.85048 7.18618 6.85048C7.15663 6.85048 7.13246 6.8636 7.13246 6.87964C7.13246 6.89567 7.10828 6.9088 7.07873 6.9088C7.04918 6.9088 7.025 6.92192 7.025 6.93795C7.025 6.95399 7.00349 6.96711 6.97721 6.96711C6.95091 6.96711 6.91199 6.99336 6.89069 7.02543C6.86938 7.05751 6.83046 7.08375 6.80416 7.08375C6.77789 7.08375 6.75637 7.09687 6.75637 7.11291C6.75637 7.12894 6.73705 7.14207 6.71341 7.14207C6.6898 7.14207 6.63659 7.18143 6.59519 7.22954C6.55379 7.27765 6.50651 7.31702 6.49015 7.31702C6.45128 7.31702 5.73556 8.09389 5.73556 8.13608C5.73556 8.15384 5.69929 8.20516 5.65497 8.25009C5.61064 8.29503 5.57438 8.35279 5.57438 8.37842C5.57438 8.40408 5.56229 8.42505 5.54751 8.42505C5.53274 8.42505 5.52065 8.4484 5.52065 8.47692C5.52065 8.50547 5.49647 8.54772 5.46692 8.57084C5.43737 8.59396 5.4132 8.63621 5.4132 8.66476C5.4132 8.69328 5.40111 8.71663 5.38633 8.71663C5.37156 8.71663 5.35947 8.74287 5.35947 8.77495C5.35947 8.80702 5.34738 8.83327 5.33261 8.83327C5.31783 8.83327 5.30574 8.87263 5.30574 8.92074C5.30574 8.96885 5.29366 9.00822 5.27888 9.00822C5.26411 9.00822 5.25202 9.03446 5.25202 9.06654C5.25202 9.09861 5.23993 9.12485 5.22515 9.12485C5.21038 9.12485 5.19829 9.16422 5.19829 9.21233C5.19829 9.26044 5.1862 9.2998 5.17143 9.2998C5.15665 9.2998 5.14456 9.35229 5.14456 9.41644C5.14456 9.48059 5.13247 9.53307 5.1177 9.53307C5.10236 9.53307 5.09084 9.62055 5.09084 9.73718C5.09084 9.85382 5.07931 9.94129 5.06397 9.94129C5.04718 9.94129 5.03711 10.1162 5.03711 10.4078C5.03711 10.6994 5.04718 10.8744 5.06397 10.8744C5.08173 10.8744 5.09084 12.0213 5.09084 14.2568C5.09084 16.4923 5.09994 17.6392 5.1177 17.6392C5.13247 17.6392 5.14456 17.7048 5.14456 17.785C5.14456 17.8652 5.15665 17.9308 5.17143 17.9308C5.1862 17.9308 5.19829 17.9832 5.19829 18.0474C5.19829 18.1115 5.21038 18.164 5.22515 18.164C5.23993 18.164 5.25202 18.2034 5.25202 18.2515C5.25202 18.2996 5.26411 18.339 5.27888 18.339C5.29366 18.339 5.30574 18.3652 5.30574 18.3973C5.30574 18.4294 5.31783 18.4556 5.33261 18.4556C5.34738 18.4556 5.35947 18.495 5.35947 18.5431C5.35947 18.5912 5.37156 18.6306 5.38633 18.6306C5.40111 18.6306 5.4132 18.6568 5.4132 18.6889C5.4132 18.721 5.42529 18.7472 5.44006 18.7472C5.45484 18.7472 5.46692 18.7734 5.46692 18.8055C5.46692 18.8376 5.47901 18.8638 5.49379 18.8638C5.50856 18.8638 5.52065 18.8872 5.52065 18.9157C5.52065 18.9443 5.54483 18.9865 5.57438 19.0096C5.60393 19.0328 5.6281 19.0721 5.6281 19.0971C5.6281 19.1221 5.65228 19.1615 5.68183 19.1846C5.71138 19.2077 5.73556 19.2471 5.73556 19.2721C5.73556 19.2971 5.75974 19.3364 5.78929 19.3595C5.81884 19.3827 5.84301 19.4185 5.84301 19.4393C5.84301 19.4852 6.34066 20.0302 6.38259 20.0302C6.399 20.0302 6.44634 20.0695 6.48774 20.1177C6.52913 20.1658 6.57969 20.2051 6.60002 20.2051C6.62039 20.2051 6.65448 20.2314 6.67578 20.2635C6.69708 20.2955 6.73601 20.3218 6.76231 20.3218C6.78858 20.3218 6.8101 20.3349 6.8101 20.3509C6.8101 20.367 6.83427 20.3801 6.86382 20.3801C6.89337 20.3801 6.91755 20.3932 6.91755 20.4092C6.91755 20.4253 6.93907 20.4384 6.96534 20.4384C6.99164 20.4384 7.03056 20.4646 7.05187 20.4967C7.07317 20.5288 7.11209 20.555 7.13839 20.555C7.16467 20.555 7.18618 20.5682 7.18618 20.5842C7.18618 20.6002 7.21036 20.6134 7.23991 20.6134C7.26946 20.6134 7.29364 20.6265 7.29364 20.6425C7.29364 20.6586 7.31782 20.6717 7.34736 20.6717C7.37691 20.6717 7.40109 20.6848 7.40109 20.7008C7.40109 20.7169 7.42527 20.73 7.45482 20.73C7.48437 20.73 7.50855 20.7431 7.50855 20.7592C7.50855 20.7752 7.53272 20.7883 7.56227 20.7883C7.59182 20.7883 7.616 20.8014 7.616 20.8175C7.616 20.8335 7.64018 20.8466 7.66973 20.8466C7.69928 20.8466 7.72345 20.8597 7.72345 20.8758C7.72345 20.8918 7.74763 20.9049 7.77718 20.9049C7.80673 20.9049 7.83091 20.9181 7.83091 20.9341C7.83091 20.9501 7.85508 20.9633 7.88463 20.9633C7.91418 20.9633 7.93836 20.9764 7.93836 20.9924C7.93836 21.0085 7.96254 21.0216 7.99209 21.0216C8.02164 21.0216 8.04581 21.0347 8.04581 21.0507C8.04581 21.0668 8.06999 21.0799 8.09954 21.0799C8.12909 21.0799 8.15327 21.093 8.15327 21.1091C8.15327 21.1251 8.17745 21.1382 8.207 21.1382C8.23654 21.1382 8.26072 21.1513 8.26072 21.1674C8.26072 21.1834 8.2849 21.1965 8.31445 21.1965C8.344 21.1965 8.36818 21.2097 8.36818 21.2257C8.36818 21.2417 8.39235 21.2548 8.4219 21.2548C8.45145 21.2548 8.47563 21.268 8.47563 21.284C8.47563 21.3 8.49981 21.3132 8.52936 21.3132C8.55891 21.3132 8.58308 21.3263 8.58308 21.3423C8.58308 21.3584 8.60726 21.3715 8.63681 21.3715C8.66636 21.3715 8.69054 21.3846 8.69054 21.4006C8.69054 21.4167 8.71471 21.4298 8.74426 21.4298C8.77381 21.4298 8.79799 21.4429 8.79799 21.459C8.79799 21.475 8.82217 21.4881 8.85172 21.4881C8.88127 21.4881 8.90544 21.5012 8.90544 21.5173C8.90544 21.5333 8.92962 21.5464 8.95917 21.5464C8.98872 21.5464 9.0129 21.5596 9.0129 21.5756C9.0129 21.5916 9.03708 21.6048 9.06662 21.6048C9.09617 21.6048 9.12035 21.6179 9.12035 21.6339C9.12035 21.6499 9.14453 21.6631 9.17408 21.6631C9.20363 21.6631 9.22781 21.6762 9.22781 21.6922C9.22781 21.7083 9.25198 21.7214 9.28153 21.7214C9.31108 21.7214 9.33526 21.7345 9.33526 21.7505C9.33526 21.7666 9.35944 21.7797 9.38899 21.7797C9.41854 21.7797 9.44271 21.7928 9.44271 21.8089C9.44271 21.8249 9.46689 21.838 9.49644 21.838C9.52599 21.838 9.55017 21.8511 9.55017 21.8672C9.55017 21.8832 9.57434 21.8963 9.60389 21.8963C9.63344 21.8963 9.65762 21.9095 9.65762 21.9255C9.65762 21.9415 9.6818 21.9547 9.71135 21.9547C9.7409 21.9547 9.76507 21.9678 9.76507 21.9838C9.76507 21.9999 9.78925 22.013 9.8188 22.013C9.84835 22.013 9.87253 22.0261 9.87253 22.0421C9.87253 22.0582 9.89671 22.0713 9.92625 22.0713C9.9558 22.0713 9.97998 22.0844 9.97998 22.1004C9.97998 22.1165 10.0015 22.1296 10.0278 22.1296C10.0541 22.1296 10.093 22.1559 10.1143 22.1879C10.1356 22.22 10.1745 22.2462 10.2008 22.2462C10.2271 22.2462 10.2486 22.2594 10.2486 22.2754C10.2486 22.2914 10.2728 22.3046 10.3023 22.3046C10.3319 22.3046 10.3561 22.3177 10.3561 22.3337C10.3561 22.3498 10.3802 22.3629 10.4098 22.3629C10.4393 22.3629 10.4635 22.376 10.4635 22.392C10.4635 22.4081 10.4877 22.4212 10.5173 22.4212C10.5468 22.4212 10.571 22.4343 10.571 22.4504C10.571 22.4664 10.5925 22.4795 10.6188 22.4795C10.6451 22.4795 10.684 22.5058 10.7053 22.5378C10.7266 22.5699 10.7655 22.5961 10.7918 22.5961C10.8181 22.5961 10.8396 22.6093 10.8396 22.6253C10.8396 22.6413 10.8638 22.6545 10.8933 22.6545C10.9229 22.6545 10.9471 22.6676 10.9471 22.6836C10.9471 22.6997 10.9712 22.7128 11.0008 22.7128C11.0303 22.7128 11.0545 22.7259 11.0545 22.7419C11.0545 22.758 11.076 22.7711 11.1023 22.7711C11.1286 22.7711 11.1675 22.7973 11.1888 22.8294C11.2101 22.8615 11.2491 22.8877 11.2754 22.8877C11.3016 22.8877 11.3232 22.9009 11.3232 22.9169C11.3232 22.9329 11.3473 22.946 11.3769 22.946C11.4064 22.946 11.4306 22.9592 11.4306 22.9752C11.4306 22.9912 11.4548 23.0044 11.4843 23.0044C11.5139 23.0044 11.5381 23.0175 11.5381 23.0335C11.5381 23.0496 11.5622 23.0627 11.5918 23.0627C11.6213 23.0627 11.6455 23.0758 11.6455 23.0918C11.6455 23.1079 11.667 23.121 11.6933 23.121C11.7196 23.121 11.7585 23.1472 11.7798 23.1793C11.8011 23.2114 11.8401 23.2376 11.8664 23.2376C11.8926 23.2376 11.9141 23.2508 11.9141 23.2668C11.9141 23.2828 11.9383 23.296 11.9679 23.296C11.9974 23.296 12.0216 23.3091 12.0216 23.3251C12.0216 23.3412 12.0458 23.3543 12.0753 23.3543C12.1049 23.3543 12.1291 23.3674 12.1291 23.3834C12.1291 23.3995 12.1506 23.4126 12.1768 23.4126C12.2031 23.4126 12.2421 23.4388 12.2634 23.4709C12.2847 23.503 12.3236 23.5292 12.3499 23.5292C12.3762 23.5292 12.3977 23.5423 12.3977 23.5584C12.3977 23.5744 12.4219 23.5875 12.4514 23.5875C12.481 23.5875 12.5051 23.6007 12.5051 23.6167C12.5051 23.6327 12.5293 23.6459 12.5589 23.6459C12.5884 23.6459 12.6126 23.659 12.6126 23.675C12.6126 23.6911 12.6368 23.7042 12.6663 23.7042C12.6959 23.7042 12.7201 23.7173 12.7201 23.7333C12.7201 23.7494 12.7416 23.7625 12.7678 23.7625C12.7941 23.7625 12.8331 23.7887 12.8544 23.8208C12.8757 23.8529 12.9146 23.8791 12.9409 23.8791C12.9672 23.8791 12.9887 23.8922 12.9887 23.9083C12.9887 23.9243 13.025 23.9374 13.0693 23.9374C13.1136 23.9374 13.1499 23.9506 13.1499 23.9666C13.1499 23.9826 13.174 23.9958 13.2036 23.9958C13.2331 23.9958 13.2573 24.0089 13.2573 24.0249C13.2573 24.041 13.2936 24.0541 13.3379 24.0541C13.3822 24.0541 13.4185 24.0672 13.4185 24.0832C13.4185 24.0993 13.4548 24.1124 13.4991 24.1124C13.5434 24.1124 13.5797 24.1255 13.5797 24.1416C13.5797 24.1576 13.6159 24.1707 13.6603 24.1707C13.7046 24.1707 13.7409 24.1838 13.7409 24.1999C13.7409 24.2159 13.7892 24.229 13.8483 24.229C13.9074 24.229 13.9558 24.2422 13.9558 24.2582C13.9558 24.2744 14.0274 24.2873 14.117 24.2873C14.2065 24.2873 14.2781 24.3003 14.2781 24.3165C14.2781 24.3351 14.511 24.3457 14.9229 24.3457C15.3348 24.3457 15.5676 24.3351 15.5676 24.3165C15.5676 24.3005 15.628 24.2873 15.7019 24.2873C15.7758 24.2873 15.8362 24.2742 15.8362 24.2582C15.8362 24.2422 15.8846 24.229 15.9437 24.229C16.0028 24.229 16.0511 24.2159 16.0511 24.1999C16.0511 24.1838 16.0874 24.1707 16.1317 24.1707C16.176 24.1707 16.2123 24.1576 16.2123 24.1416C16.2123 24.1255 16.2486 24.1124 16.2929 24.1124C16.3372 24.1124 16.3735 24.0993 16.3735 24.0832C16.3735 24.0672 16.3977 24.0541 16.4272 24.0541C16.4568 24.0541 16.4809 24.041 16.4809 24.0249C16.4809 24.0089 16.5051 23.9958 16.5347 23.9958C16.5642 23.9958 16.5884 23.9826 16.5884 23.9666C16.5884 23.9506 16.6126 23.9374 16.6421 23.9374C16.6717 23.9374 16.6958 23.9243 16.6958 23.9083C16.6958 23.8922 16.72 23.8791 16.7496 23.8791C16.7791 23.8791 16.8033 23.866 16.8033 23.85C16.8033 23.8339 16.8275 23.8208 16.857 23.8208C16.8866 23.8208 16.9107 23.8077 16.9107 23.7917C16.9107 23.7756 16.9349 23.7625 16.9645 23.7625C16.994 23.7625 17.0182 23.7494 17.0182 23.7333C17.0182 23.7173 17.0397 23.7042 17.066 23.7042C17.0923 23.7042 17.1312 23.6779 17.1525 23.6459C17.1738 23.6138 17.2127 23.5875 17.239 23.5875C17.2653 23.5875 17.2868 23.5744 17.2868 23.5584C17.2868 23.5423 17.311 23.5292 17.3406 23.5292C17.3701 23.5292 17.3943 23.5161 17.3943 23.5001C17.3943 23.484 17.4185 23.4709 17.448 23.4709C17.4776 23.4709 17.5017 23.4578 17.5017 23.4417C17.5017 23.4257 17.5233 23.4126 17.5495 23.4126C17.5758 23.4126 17.6148 23.3863 17.6361 23.3543C17.6574 23.3222 17.6963 23.296 17.7226 23.296C17.7489 23.296 17.7704 23.2828 17.7704 23.2668C17.7704 23.2508 17.7946 23.2376 17.8241 23.2376C17.8537 23.2376 17.8778 23.2245 17.8778 23.2085C17.8778 23.1924 17.902 23.1793 17.9316 23.1793C17.9611 23.1793 17.9853 23.1662 17.9853 23.1502C17.9853 23.1341 18.0068 23.121 18.0331 23.121C18.0594 23.121 18.0983 23.0948 18.1196 23.0627C18.1409 23.0306 18.1798 23.0044 18.2061 23.0044C18.2324 23.0044 18.2539 22.9912 18.2539 22.9752C18.2539 22.9592 18.2781 22.946 18.3076 22.946C18.3372 22.946 18.3614 22.9329 18.3614 22.9169C18.3614 22.9009 18.3856 22.8877 18.4151 22.8877C18.4447 22.8877 18.4688 22.8746 18.4688 22.8586C18.4688 22.8425 18.4903 22.8294 18.5166 22.8294C18.5429 22.8294 18.5818 22.8032 18.6031 22.7711C18.6244 22.739 18.6634 22.7128 18.6897 22.7128C18.7159 22.7128 18.7375 22.6997 18.7375 22.6836C18.7375 22.6676 18.7616 22.6545 18.7912 22.6545C18.8207 22.6545 18.8449 22.6413 18.8449 22.6253C18.8449 22.6093 18.8691 22.5961 18.8986 22.5961C18.9282 22.5961 18.9524 22.583 18.9524 22.567C18.9524 22.5509 18.9739 22.5378 19.0002 22.5378C19.0265 22.5378 19.0654 22.5116 19.0867 22.4795C19.108 22.4474 19.1469 22.4212 19.1732 22.4212C19.1995 22.4212 19.221 22.4081 19.221 22.392C19.221 22.376 19.2452 22.3629 19.2747 22.3629C19.3043 22.3629 19.3285 22.3498 19.3285 22.3337C19.3285 22.3177 19.3526 22.3046 19.3822 22.3046C19.4117 22.3046 19.4359 22.2914 19.4359 22.2754C19.4359 22.2594 19.4574 22.2462 19.4837 22.2462C19.51 22.2462 19.5489 22.22 19.5702 22.1879C19.5915 22.1559 19.6305 22.1296 19.6568 22.1296C19.683 22.1296 19.7045 22.1165 19.7045 22.1004C19.7045 22.0844 19.7287 22.0713 19.7583 22.0713C19.7878 22.0713 19.812 22.0582 19.812 22.0421C19.812 22.0261 19.8362 22.013 19.8657 22.013C19.8953 22.013 19.9195 21.9999 19.9195 21.9838C19.9195 21.9678 19.9436 21.9547 19.9732 21.9547C20.0027 21.9547 20.0269 21.9415 20.0269 21.9255C20.0269 21.9095 20.0511 21.8963 20.0806 21.8963C20.1102 21.8963 20.1344 21.8832 20.1344 21.8672C20.1344 21.8511 20.1585 21.838 20.1881 21.838C20.2176 21.838 20.2418 21.8249 20.2418 21.8089C20.2418 21.7928 20.266 21.7797 20.2955 21.7797C20.3251 21.7797 20.3493 21.7666 20.3493 21.7505C20.3493 21.7345 20.3734 21.7214 20.403 21.7214C20.4325 21.7214 20.4567 21.7083 20.4567 21.6922C20.4567 21.6762 20.4809 21.6631 20.5104 21.6631C20.54 21.6631 20.5642 21.6499 20.5642 21.6339C20.5642 21.6179 20.5884 21.6048 20.6179 21.6048C20.6475 21.6048 20.6716 21.5916 20.6716 21.5756C20.6716 21.5596 20.6958 21.5464 20.7254 21.5464C20.7549 21.5464 20.7791 21.5333 20.7791 21.5173C20.7791 21.5012 20.8033 21.4881 20.8328 21.4881C20.8624 21.4881 20.8865 21.475 20.8865 21.459C20.8865 21.4429 20.9081 21.4298 20.9343 21.4298C20.9606 21.4298 20.9996 21.4036 21.0209 21.3715C21.0422 21.3394 21.0811 21.3132 21.1074 21.3132C21.1337 21.3132 21.1552 21.3 21.1552 21.284C21.1552 21.268 21.1793 21.2548 21.2089 21.2548C21.2384 21.2548 21.2626 21.2417 21.2626 21.2257C21.2626 21.2097 21.2868 21.1965 21.3164 21.1965C21.3459 21.1965 21.3701 21.1834 21.3701 21.1674C21.3701 21.1513 21.3943 21.1382 21.4238 21.1382C21.4534 21.1382 21.4775 21.1251 21.4775 21.1091C21.4775 21.093 21.5017 21.0799 21.5313 21.0799C21.5608 21.0799 21.585 21.0668 21.585 21.0507C21.585 21.0347 21.6092 21.0216 21.6387 21.0216C21.6683 21.0216 21.6924 21.0085 21.6924 20.9924C21.6924 20.9764 21.7166 20.9633 21.7462 20.9633C21.7757 20.9633 21.7999 20.9501 21.7999 20.9341C21.7999 20.9181 21.8241 20.9049 21.8536 20.9049C21.8832 20.9049 21.9073 20.8918 21.9073 20.8758C21.9073 20.8597 21.9315 20.8466 21.9611 20.8466C21.9906 20.8466 22.0148 20.8335 22.0148 20.8175C22.0148 20.8014 22.039 20.7883 22.0685 20.7883C22.0981 20.7883 22.1223 20.7752 22.1223 20.7592C22.1223 20.7431 22.1464 20.73 22.176 20.73C22.2055 20.73 22.2297 20.7169 22.2297 20.7008C22.2297 20.6848 22.2539 20.6717 22.2834 20.6717C22.313 20.6717 22.3372 20.6586 22.3372 20.6425C22.3372 20.6265 22.3613 20.6134 22.3909 20.6134C22.4204 20.6134 22.4446 20.6002 22.4446 20.5842C22.4446 20.5682 22.4688 20.555 22.4983 20.555C22.5279 20.555 22.5521 20.5419 22.5521 20.5259C22.5521 20.5098 22.5736 20.4967 22.5999 20.4967C22.6262 20.4967 22.6651 20.4705 22.6864 20.4384C22.7077 20.4063 22.7466 20.3801 22.7729 20.3801C22.7992 20.3801 22.8207 20.367 22.8207 20.3509C22.8207 20.3349 22.8422 20.3218 22.8685 20.3218C22.8948 20.3218 22.9337 20.2955 22.955 20.2635C22.9763 20.2314 23.0104 20.2051 23.0308 20.2051C23.0511 20.2051 23.1017 20.1658 23.1431 20.1177C23.1845 20.0695 23.2318 20.0302 23.2482 20.0302C23.2871 20.0302 23.8952 19.37 23.8952 19.3278C23.8952 19.31 23.9315 19.2587 23.9758 19.2137C24.0202 19.1688 24.0564 19.1139 24.0564 19.0919C24.0564 19.0698 24.0806 19.0328 24.1101 19.0096C24.1397 18.9865 24.1639 18.9443 24.1639 18.9157C24.1639 18.8872 24.176 18.8638 24.1907 18.8638C24.2055 18.8638 24.2176 18.8376 24.2176 18.8055C24.2176 18.7734 24.2297 18.7472 24.2445 18.7472C24.2592 18.7472 24.2713 18.721 24.2713 18.6889C24.2713 18.6568 24.2834 18.6306 24.2982 18.6306C24.313 18.6306 24.3251 18.6043 24.3251 18.5723C24.3251 18.5402 24.3371 18.5139 24.3519 18.5139C24.3667 18.5139 24.3788 18.4877 24.3788 18.4556C24.3788 18.4235 24.3909 18.3973 24.4056 18.3973C24.4204 18.3973 24.4325 18.3579 24.4325 18.3098C24.4325 18.2617 24.4446 18.2224 24.4594 18.2224C24.4741 18.2224 24.4862 18.183 24.4862 18.1349C24.4862 18.0868 24.4983 18.0474 24.5131 18.0474C24.5279 18.0474 24.54 17.9949 24.54 17.9308C24.54 17.8666 24.5521 17.8141 24.5668 17.8141C24.5844 17.8141 24.5937 17.2018 24.5937 16.0355C24.5937 14.8691 24.5844 14.2568 24.5668 14.2568C24.5497 14.2568 24.54 14.0041 24.54 13.557C24.54 13.1099 24.5497 12.8572 24.5668 12.8572C24.5844 12.8572 24.5937 12.3323 24.5937 11.3409C24.5937 10.3495 24.5844 9.82466 24.5668 9.82466C24.5521 9.82466 24.54 9.75905 24.54 9.67887C24.54 9.59868 24.5279 9.53307 24.5131 9.53307C24.4983 9.53307 24.4862 9.48059 24.4862 9.41644C24.4862 9.35229 24.4741 9.2998 24.4594 9.2998C24.4446 9.2998 24.4325 9.26044 24.4325 9.21233C24.4325 9.16422 24.4204 9.12485 24.4056 9.12485C24.3909 9.12485 24.3788 9.08549 24.3788 9.03738C24.3788 8.98927 24.3667 8.9499 24.3519 8.9499C24.3371 8.9499 24.3251 8.92366 24.3251 8.89158C24.3251 8.85951 24.313 8.83327 24.2982 8.83327C24.2834 8.83327 24.2713 8.80702 24.2713 8.77495C24.2713 8.74287 24.2592 8.71663 24.2445 8.71663C24.2297 8.71663 24.2176 8.69039 24.2176 8.65831C24.2176 8.62624 24.2055 8.6 24.1907 8.6C24.176 8.6 24.1639 8.57375 24.1639 8.54168C24.1639 8.50961 24.1518 8.48336 24.137 8.48336C24.1222 8.48336 24.1101 8.45712 24.1101 8.42505C24.1101 8.39297 24.0981 8.36673 24.0833 8.36673C24.0685 8.36673 24.0564 8.34337 24.0564 8.31486C24.0564 8.28631 24.0322 8.24406 24.0027 8.22093C23.9731 8.19781 23.949 8.16081 23.949 8.13871C23.949 8.11663 23.9127 8.06176 23.8684 8.01682C23.8241 7.97189 23.7878 7.92048 23.7878 7.90261C23.7878 7.86056 23.395 7.43365 23.3563 7.43365C23.3401 7.43365 23.2804 7.38117 23.2237 7.31702C23.1669 7.25287 23.104 7.20038 23.0839 7.20038C23.0639 7.20038 23.0301 7.17414 23.0087 7.14207C22.9874 7.10999 22.9485 7.08375 22.9222 7.08375C22.8959 7.08375 22.8744 7.07063 22.8744 7.05459C22.8744 7.03855 22.8503 7.02543 22.8207 7.02543C22.7912 7.02543 22.767 7.01231 22.767 6.99627C22.767 6.98023 22.7428 6.96711 22.7133 6.96711C22.6837 6.96711 22.6595 6.95399 22.6595 6.93795C22.6595 6.92192 22.6353 6.9088 22.6058 6.9088C22.5762 6.9088 22.5521 6.89567 22.5521 6.87964C22.5521 6.8636 22.5279 6.85048 22.4983 6.85048C22.4688 6.85048 22.4446 6.83736 22.4446 6.82132C22.4446 6.80528 22.4231 6.79216 22.3968 6.79216C22.3705 6.79216 22.3316 6.76592 22.3103 6.73384C22.289 6.70177 22.2501 6.67553 22.2238 6.67553C22.1975 6.67553 22.176 6.66241 22.176 6.64637C22.176 6.63033 22.1518 6.61721 22.1223 6.61721C22.0927 6.61721 22.0685 6.60409 22.0685 6.58805C22.0685 6.57201 22.0444 6.55889 22.0148 6.55889C21.9853 6.55889 21.9611 6.54577 21.9611 6.52973C21.9611 6.5137 21.9369 6.50058 21.9073 6.50058C21.8778 6.50058 21.8536 6.48745 21.8536 6.47142C21.8536 6.45538 21.8294 6.44226 21.7999 6.44226C21.7703 6.44226 21.7462 6.42914 21.7462 6.4131C21.7462 6.39706 21.722 6.38394 21.6924 6.38394C21.6629 6.38394 21.6387 6.37082 21.6387 6.35478C21.6387 6.33875 21.6145 6.32562 21.585 6.32562C21.5554 6.32562 21.5313 6.3125 21.5313 6.29646C21.5313 6.28043 21.5071 6.26731 21.4775 6.26731C21.448 6.26731 21.4238 6.25418 21.4238 6.23815C21.4238 6.22211 21.3996 6.20899 21.3701 6.20899C21.3405 6.20899 21.3164 6.19587 21.3164 6.17983C21.3164 6.16379 21.2922 6.15067 21.2626 6.15067C21.2331 6.15067 21.2089 6.13755 21.2089 6.12151C21.2089 6.07824 21.12 6.0883 21.0813 6.13598Z" fill="url(#paint0_linear_23815_103648)"/>
<defs>
<linearGradient id="paint0_linear_23815_103648" x1="14.9108" y1="6.06324" x2="14.9108" y2="20.1428" gradientUnits="userSpaceOnUse">
<stop stop-color="#008AD0"/>
<stop offset="1" stop-color="#641873"/>
</linearGradient>
</defs>
</svg>
